tid,cid,mid,currency,timestamp,vhost_name,registered,last_seen,status
8010,3155,1234556,GBP,,vhost_3155,FALSE,,
8011,3155,1234557,GBP,,vhost_3155,TRUE,,
8012,3155,1234558,GBP,,vhost_3155,FALSE,,
8013,3155,1234559,GBP,,vhost_3155,TRUE,,
8014,3155,1234560,GBP,,vhost_3155,FALSE,,
4010,4155,4234559,GBP,,vhost_4155,TRUE,,
4011,4155,4234559,GBP,,vhost_4155,FALSE,,
4012,4155,4234559,GBP,,vhost_4155,TRUE,,
4013,4155,4234559,GBP,,vhost_4155,FALSE,,
4014,4155,4234559,GBP,,vhost_4155,TRUE,,